Quartus/simulation/qsim/elecroIII.msim.vcd
$comment
	File created using the following command:
		vcd file elecroIII.msim.vcd -direction
$end
$date
	Sun Nov 18 15:10:28 2018
$end
$version
	ModelSim Version 10.5b
$end
$timescale
	1ps
$end

$scope module elecroIII_vlg_vec_tst $end
$var reg 1 ! inclk0 $end
$var reg 1 " reset $end
$var reg 1 # start_stop $end
$var wire 1 $ B $end
$var wire 1 % G $end
$var wire 1 & h_sync $end
$var wire 1 ' R $end
$var wire 1 ( v_sync $end

$scope module i1 $end
$var wire 1 ) gnd $end
$var wire 1 * vcc $end
$var wire 1 + unknown $end
$var tri1 1 , devclrn $end
$var tri1 1 - devpor $end
$var tri1 1 . devoe $end
$var wire 1 / start_stop~input_o $end
$var wire 1 0 reset~input_o $end
$var wire 1 1 ~ALTERA_ASDO_DATA1~~ibuf_o $end
$var wire 1 2 ~ALTERA_ASDO_DATA1~~padout $end
$var wire 1 3 ~ALTERA_FLASH_nCE_nCSO~~ibuf_o $end
$var wire 1 4 ~ALTERA_FLASH_nCE_nCSO~~padout $end
$var wire 1 5 ~ALTERA_DCLK~~padout $end
$var wire 1 6 ~ALTERA_DATA0~~ibuf_o $end
$var wire 1 7 ~ALTERA_DATA0~~padout $end
$var wire 1 8 ~ALTERA_nCEO~~padout $end
$var wire 1 9 ~ALTERA_DCLK~~obuf_o $end
$var wire 1 : ~ALTERA_nCEO~~obuf_o $end
$var wire 1 ; inclk0~input_o $end
$var wire 1 < inst6|altpll_component|auto_generated|wire_pll1_fbout $end
$var wire 1 = inst6|altpll_component|auto_generated|wire_pll1_clk[0]~clkctrl_outclk $end
$var wire 1 > inst12|count2[0]~10_combout $end
$var wire 1 ? inst12|LessThan12~1_combout $end
$var wire 1 @ inst12|LessThan12~0_combout $end
$var wire 1 A inst12|count2~31_combout $end
$var wire 1 B inst12|Add1~0_combout $end
$var wire 1 C inst12|count1~10_combout $end
$var wire 1 D inst12|count1[9]~11_combout $end
$var wire 1 E inst12|Add1~1 $end
$var wire 1 F inst12|Add1~2_combout $end
$var wire 1 G inst12|count1~12_combout $end
$var wire 1 H inst12|Add1~3 $end
$var wire 1 I inst12|Add1~4_combout $end
$var wire 1 J inst12|count1[2]~9_combout $end
$var wire 1 K inst12|Add1~5 $end
$var wire 1 L inst12|Add1~6_combout $end
$var wire 1 M inst12|count1[3]~8_combout $end
$var wire 1 N inst12|Add1~7 $end
$var wire 1 O inst12|Add1~8_combout $end
$var wire 1 P inst12|count1[4]~7_combout $end
$var wire 1 Q inst12|Add1~9 $end
$var wire 1 R inst12|Add1~10_combout $end
$var wire 1 S inst12|count1[5]~4_combout $end
$var wire 1 T inst12|Add1~11 $end
$var wire 1 U inst12|Add1~12_combout $end
$var wire 1 V inst12|count1[6]~5_combout $end
$var wire 1 W inst12|Add1~13 $end
$var wire 1 X inst12|Add1~14_combout $end
$var wire 1 Y inst12|count1[7]~6_combout $end
$var wire 1 Z inst12|LessThan7~1_combout $end
$var wire 1 [ inst12|Add1~15 $end
$var wire 1 \ inst12|Add1~17 $end
$var wire 1 ] inst12|Add1~18_combout $end
$var wire 1 ^ inst12|LessThan7~0_combout $end
$var wire 1 _ inst12|count1[9]~0_combout $end
$var wire 1 ` inst12|count1[9]~1_combout $end
$var wire 1 a inst12|count1[8]~2_combout $end
$var wire 1 b inst12|Add1~16_combout $end
$var wire 1 c inst12|count1[8]~3_combout $end
$var wire 1 d inst12|LessThan7~2_combout $end
$var wire 1 e inst12|count2[9]~22_combout $end
$var wire 1 f inst12|count2[0]~11 $end
$var wire 1 g inst12|count2[1]~12_combout $end
$var wire 1 h inst12|count2[1]~13 $end
$var wire 1 i inst12|count2[2]~14_combout $end
$var wire 1 j inst12|count2[2]~15 $end
$var wire 1 k inst12|count2[3]~16_combout $end
$var wire 1 l inst12|count2[3]~17 $end
$var wire 1 m inst12|count2[4]~18_combout $end
$var wire 1 n inst12|count2[4]~19 $end
$var wire 1 o inst12|count2[5]~20_combout $end
$var wire 1 p inst12|count2[5]~21 $end
$var wire 1 q inst12|count2[6]~23_combout $end
$var wire 1 r inst12|count2[6]~24 $end
$var wire 1 s inst12|count2[7]~25_combout $end
$var wire 1 t inst12|count2[7]~26 $end
$var wire 1 u inst12|count2[8]~27_combout $end
$var wire 1 v inst12|count2[8]~28 $end
$var wire 1 w inst12|count2[9]~29_combout $end
$var wire 1 x inst12|LessThan1~0_combout $end
$var wire 1 y inst12|LessThan1~1_combout $end
$var wire 1 z inst12|LessThan1~2_combout $end
$var wire 1 { inst12|LessThan0~1_combout $end
$var wire 1 | inst12|LessThan0~0_combout $end
$var wire 1 } inst12|LessThan0~2_combout $end
$var wire 1 ~ inst12|LessThan6~0_combout $end
$var wire 1 !! inst12|h_sync~0_combout $end
$var wire 1 "! inst12|h_sync~1_combout $end
$var wire 1 #! inst12|h_sync~2_combout $end
$var wire 1 $! inst12|LessThan6~1_combout $end
$var wire 1 %! inst12|h_sync~3_combout $end
$var wire 1 &! inst12|h_sync~q $end
$var wire 1 '! inst12|v_sync~1_combout $end
$var wire 1 (! inst12|LessThan8~1_combout $end
$var wire 1 )! inst12|LessThan8~0_combout $end
$var wire 1 *! inst12|LessThan8~2_combout $end
$var wire 1 +! inst12|v_sync~0_combout $end
$var wire 1 ,! inst12|v_sync~2_combout $end
$var wire 1 -! inst12|v_sync~q $end
$var wire 1 .! inst12|R~1_combout $end
$var wire 1 /! inst12|LessThan4~1_combout $end
$var wire 1 0! inst12|LessThan5~0_combout $end
$var wire 1 1! inst12|R~2_combout $end
$var wire 1 2! inst12|LessThan2~0_combout $end
$var wire 1 3! inst12|R~3_combout $end
$var wire 1 4! inst12|LessThan2~1_combout $end
$var wire 1 5! inst12|LessThan2~2_combout $end
$var wire 1 6! inst12|R~4_combout $end
$var wire 1 7! inst12|LessThan4~0_combout $end
$var wire 1 8! inst12|LessThan4~2_combout $end
$var wire 1 9! inst12|R~0_combout $end
$var wire 1 :! inst12|R~5_combout $end
$var wire 1 ;! inst12|R~6_combout $end
$var wire 1 <! inst12|R~7_combout $end
$var wire 1 =! inst12|B~q $end
$var wire 1 >! inst12|count2 [9] $end
$var wire 1 ?! inst12|count2 [8] $end
$var wire 1 @! inst12|count2 [7] $end
$var wire 1 A! inst12|count2 [6] $end
$var wire 1 B! inst12|count2 [5] $end
$var wire 1 C! inst12|count2 [4] $end
$var wire 1 D! inst12|count2 [3] $end
$var wire 1 E! inst12|count2 [2] $end
$var wire 1 F! inst12|count2 [1] $end
$var wire 1 G! inst12|count2 [0] $end
$var wire 1 H! inst6|altpll_component|auto_generated|wire_pll1_clk [4] $end
$var wire 1 I! inst6|altpll_component|auto_generated|wire_pll1_clk [3] $end
$var wire 1 J! inst6|altpll_component|auto_generated|wire_pll1_clk [2] $end
$var wire 1 K! inst6|altpll_component|auto_generated|wire_pll1_clk [1] $end
$var wire 1 L! inst6|altpll_component|auto_generated|wire_pll1_clk [0] $end
$var wire 1 M! inst12|count1 [9] $end
$var wire 1 N! inst12|count1 [8] $end
$var wire 1 O! inst12|count1 [7] $end
$var wire 1 P! inst12|count1 [6] $end
$var wire 1 Q! inst12|count1 [5] $end
$var wire 1 R! inst12|count1 [4] $end
$var wire 1 S! inst12|count1 [3] $end
$var wire 1 T! inst12|count1 [2] $end
$var wire 1 U! inst12|count1 [1] $end
$var wire 1 V! inst12|count1 [0] $end
$var wire 1 W! inst6|altpll_component|auto_generated|pll1_CLK_bus [4] $end
$var wire 1 X! inst6|altpll_component|auto_generated|pll1_CLK_bus [3] $end
$var wire 1 Y! inst6|altpll_component|auto_generated|pll1_CLK_bus [2] $end
$var wire 1 Z! inst6|altpll_component|auto_generated|pll1_CLK_bus [1] $end
$var wire 1 [! inst6|altpll_component|auto_generated|pll1_CLK_bus [0] $end
$upscope $end
$upscope $end
$enddefinitions $end
#0
$dumpvars
0!
0"
1#
x$
x%
x&
x'
x(
0)
1*
x+
1,
1-
1.
1/
00
z1
z2
z3
z4
z5
z6
z7
z8
z9
z:
0;
x<
x=
x>
x?
x@
xA
xB
xC
xD
xE
xF
xG
xH
xI
xJ
xK
xL
xM
xN
xO
xP
xQ
xR
xS
xT
xU
xV
xW
xX
xY
xZ
x[
x\
x]
x^
x_
x`
xa
xb
xc
xd
xe
xf
xg
xh
xi
xj
xk
xl
xm
xn
xo
xp
xq
xr
xs
xt
xu
xv
xw
xx
xy
xz
x{
x|
x}
x~
x!!
x"!
x#!
x$!
x%!
0&!
x'!
x(!
x)!
x*!
x+!
x,!
0-!
x.!
x/!
x0!
x1!
x2!
x3!
x4!
x5!
x6!
x7!
x8!
x9!
x:!
x;!
x<!
0=!
0G!
0F!
0E!
0D!
0C!
0B!
0A!
0@!
0?!
0>!
xL!
xK!
xJ!
xI!
xH!
0V!
0U!
0T!
0S!
0R!
0Q!
0P!
0O!
0N!
0M!
x[!
xZ!
xY!
xX!
xW!
$end
#451
00!
#579
11!
#598
0'!
#663
0f
#664
0j
#665
0W
0Q
#675
0r
#676
0v
0\
#688
0n
#700
1>
#702
0/!
#703
0x
#704
1^
#718
0+!
#726
0a
#790
1h
#791
1l
#793
1[
#801
0K
#803
1t
#816
1p
#912
1T
#929
1N
#945
1<
#1083
02!
#1100
0g
#1101
0k
#1102
0R
0X
#1103
0|
#1105
0)!
#1112
0s
#1113
0]
0w
#1125
0o
#1227
0i
#1228
0m
#1230
0b
#1238
0L
#1240
0u
#1243
1A
#1253
0q
#1265
1d
#1266
0_
#1285
0"!
#1288
0y
#1295
0(!
#1311
1@
#1328
0,!
#1338
1Z
#1349
0U
#1366
0O
#1377
0{
#1379
0E
#1394
05!
#1398
1.!
#1418
1B
#1445
1H
#1481
1?
#1483
0~
#1485
1z
#1521
07!
#1549
13!
#1590
04!
#1610
0}
#1615
1*!
#1701
0M
#1710
0S
#1711
0Y
#1715
06!
#1809
0c
#1816
0F
#1865
1$!
#1880
0#!
#1882
0I
#1958
0V
#2105
0P
#2129
08!
#2244
1!!
#2296
0`
#2317
0%!
#2325
0e
#2326
0:!
#2430
1C
#2533
0J
#2724
0D
#2773
0;!
#2847
0G
#2900
09!
#3297
0<!
#4144
0'
#4146
0%
#4359
0$
#5180
0&
#5923
0(
#10000
1!
#10514
1;
#20000
0!
#20679
0;
#30000
1!
#30514
1;
#40000
0!
#40679
0;
#50000
1!
#50514
1;
#60000
0!
#60679
0;
#70000
1!
#70514
1;
#70945
0<
#80000
0!
#80679
0;
#90000
1!
#90514
1;
#100000
0!
#100679
0;
#110000
1!
#110514
1;
#120000
0!
#120679
0;
#130000
1!
#130514
1;
#140000
0!
#140679
0;
#140946
1<
#150000
1!
#150514
1;
#160000
0!
#160679
0;
#170000
1!
#170514
1;
#180000
0!
#180679
0;
#190000
1!
#190514
1;
#200000
0!
#200679
0;
#210000
1!
#210514
1;
#210946
0<
#220000
0!
#220679
0;
#230000
1!
#230514
1;
#240000
0!
#240679
0;
#250000
1!
#250514
1;
#260000
0!
#260679
0;
#270000
1!
#270514
1;
#280000
0!
#280679
0;
#280946
1<
#290000
1!
#290514
1;
#300000
0!
#300679
0;
#310000
1!
#310514
1;
#320000
0!
#320679
0;
#330000
1!
#330514
1;
#340000
0!
#340679
0;
#350000
1!
#350514
1;
#350946
0<
#360000
0!
#360679
0;
#370000
1!
#370514
1;
#380000
0!
#380679
0;
#390000
1!
#390514
1;
#400000
0!
#400679
0;
#410000
1!
#410514
1;
#420000
0!
#420679
0;
#420946
1<
#430000
1!
#430514
1;
#440000
0!
#440679
0;
#450000
1!
#450514
1;
#460000
0!
#460679
0;
#470000
1!
#470514
1;
#480000
0!
#480679
0;
#490000
1!
#490514
1;
#496669
0<
#500000
0!
#500679
0;
#510000
1!
#510514
1;
#520000
0!
#520679
0;
#530000
1!
#530514
1;
#540000
0!
#540679
0;
#550000
1!
#550514
1;
#560000
0!
#560679
0;
#570000
1!
#570514
1;
#572392
1<
0W!
0X!
0Y!
0Z!
1[!
1L!
0K!
0J!
0I!
0H!
#574288
1=
#580000
0!
#580679
0;
#588473
0[!
0L!
#590000
1!
#590351
0=
#590514
1;
#600000
0!
#600679
0;
#608337
1[!
1L!
#610000
1!
#610233
1=
#610514
1;
#611957
1G!
#612433
1y
#612570
1/!
#612584
0>
#612661
1f
#613116
1g
#620000
0!
#620679
0;
#628202
0[!
0L!
#630000
1!
#630080
0=
#630514
1;
#640000
0!
#640679
0;
#642392
0<
#648067
1[!
1L!
#649963
1=
#650000
1!
#650514
1;
#651687
0G!
1F!
#652244
0y
#652261
0h
#652300
1x
#652314
0g
#652350
0f
#652387
1>
#652408
1h
#652805
1g
#652853
1y
#660000
0!
#660679
0;
#667932
0[!
0L!
#669810
0=
#670000
1!
#670514
1;
#680000
0!
#680679
0;
#687797
1[!
1L!
#689693
1=
#690000
1!
#690514
1;
#691417
1G!
#692044
0>
#692121
1f
#692179
0h
#692558
0g
#692634
1i
#700000
0!
#700679
0;
#707662
0[!
0L!
#709540
0=
#710000
1!
#710514
1;
#712392
1<
#720000
0!
#720679
0;
#727527
1[!
1L!
#729423
1=
#730000
1!
#730514
1;
#731147
0G!
0F!
1E!
#731775
0i
#731810
0f
#731847
1>
#731852
1j
#731937
1h
#731995
0j
#732392
1i
#740000
0!
#740679
0;
#747392
0[!
0L!
#749270
0=
#750000
1!
#750514
1;
#760000
0!
#760679
0;
#767256
1[!
1L!
#769152
1=
#770000
1!
#770514
1;
#770876
1G!
#771503
0>
#771580
1f
#772035
1g
#780000
0!
#780679
0;
#782392
0<
#787121
0[!
0L!
#788999
0=
#790000
1!
#790514
1;
#800000
0!
#800679
0;
#806986
1[!
1L!
#808882
1=
#810000
1!
#810514
1;
#810606
0G!
1F!
#811180
0h
#811233
0g
#811238
1j
#811269
0f
#811306
1>
#811327
1h
#811385
0j
#811724
1g
#820000
0!
#820679
0;
#826851
0[!
0L!
#828729
0=
#830000
1!
#830514
1;
#840000
0!
#840679
0;
#846716
1[!
1L!
#848612
1=
#850000
1!
#850336
1G!
#850514
1;
#850963
0>
#851040
1f
#851098
0h
#851156
1j
#851477
0g
#851535
0i
#851611
1k
#852392
1<
#860000
0!
#860679
0;
#866581
0[!
0L!
#868459
0=
#870000
1!
#870514
1;
#880000
0!
#880679
0;
#886446
1[!
1L!
#888342
1=
#890000
1!
#890066
0G!
0F!
0E!
1D!
#890514
1;
#890642
0l
#890695
0k
#890729
0f
#890730
0j
#890766
1>
#890767
1i
#890769
0x
#890788
1l
#890856
1h
#891185
1k
#891293
0i
#900000
0!
#900679
0;
#906310
0[!
0L!
#908188
0=
#910000
1!
#910514
1;
#920000
0!
#920679
0;
#922392
0<
#926175
1[!
1L!
#928071
1=
#929795
1G!
#930000
1!
#930422
0>
#930499
1f
#930514
1;
#930954
1g
#940000
0!
#940679
0;
#946040
0[!
0L!
#947918
0=
#950000
1!
#950514
1;
#960000
0!
#960679
0;
#965905
1[!
1L!
#967801
1=
#969525
0G!
1F!
#970000
1!
#970099
0h
#970138
1x
#970152
0g
#970188
0f
#970225
1>
#970246
1h
#970514
1;
#970643
1g
#980000
0!
#980679
0;
#985770
0[!
0L!
#987648
0=
#990000
1!
#990514
1;
#992392
1<
#1000000
0!
#1000679
0;
#1005635
1[!
1L!
#1007531
1=
#1009255
1G!
#1009882
0>
#1009959
1f
#1010000
1!
#1010017
0h
#1010396
0g
#1010472
1i
#1010514
1;
#1020000
0!
#1020679
0;
#1025500
0[!
0L!
#1027378
0=
#1030000
1!
#1030514
1;
#1040000
0!
#1040679
0;
#1045364
1[!
1L!
#1047260
1=
#1048984
0G!
0F!
1E!
#1049612
0i
#1049647
0f
#1049684
1>
#1049689
1j
#1049747
0l
#1049774
1h
#1049832
0j
#1049890
1l
#1050000
1!
#1050229
1i
#1050514
1;
#1060000
0!
#1060679
0;
#1062392
0<
#1065229
0[!
0L!
#1067107
0=
#1070000
1!
#1070514
1;
#1080000
0!
#1080679
0;
#1085094
1[!
1L!
#1086990
1=
#1088714
1G!
#1089341
0>
#1089418
1f
#1089873
1g
#1090000
1!
#1090514
1;
#1100000
0!
#1100679
0;
#1104959
0[!
0L!
#1106837
0=
#1110000
1!
#1110514
1;
#1120000
0!
#1120679
0;
#1124824
1[!
1L!
#1126720
1=
#1128444
0G!
1F!
#1129018
0h
#1129071
0g
#1129076
1j
#1129107
0f
#1129134
0l
#1129144
1>
#1129165
1h
#1129223
0j
#1129281
1l
#1129562
1g
#1130000
1!
#1130514
1;
#1132392
1<
#1140000
0!
#1140679
0;
#1144689
0[!
0L!
#1146567
0=
#1150000
1!
#1150514
1;
#1160000
0!
#1160679
0;
#1164554
1[!
1L!
#1166450
1=
#1168174
1G!
#1168801
0>
#1168878
1f
#1168936
0h
#1168994
1j
#1169052
0l
#1169315
0g
#1169373
0i
#1169431
0k
#1169507
1m
#1170000
1!
#1170514
1;
#1180000
0!
#1180679
0;
#1184419
0[!
0L!
#1186297
0=
#1190000
1!
#1190514
1;
#1200000
0!
#1200679
0;
#1202392
0<
#1204283
1[!
1L!
#1206179
1=
#1207903
0G!
0F!
0E!
0D!
1C!
#1208551
0m
#1208566
0f
#1208567
0j
#1208603
1>
#1208604
1i
#1208605
0/!
#1208620
1n
#1208693
1h
#1208694
1l
#1208752
0n
#1209130
0i
#1209149
1m
#1210000
1!
#1210514
1;
#1220000
0!
#1220679
0;
#1224148
0[!
0L!
#1226026
0=
#1230000
1!
#1230514
1;
#1240000
0!
#1240679
0;
#1244013
1[!
1L!
#1245909
1=
#1247633
1G!
#1248246
1/!
#1248260
0>
#1248337
1f
#1248792
1g
#1250000
1!
#1250514
1;
#1260000
0!
#1260679
0;
#1263878
0[!
0L!
#1265756
0=
#1270000
1!
#1270514
1;
#1272392
1<
#1280000
0!
#1280679
0;
#1283743
1[!
1L!
#1285639
1=
#1287363
0G!
1F!
#1287937
0h
#1287990
0g
#1288026
0f
#1288063
1>
#1288084
1h
#1288481
1g
#1290000
1!
#1290514
1;
#1300000
0!
#1300679
0;
#1303608
0[!
0L!
#1305486
0=
#1310000
1!
#1310514
1;
#1320000
0!
#1320679
0;
#1323473
1[!
1L!
#1325369
1=
#1327093
1G!
#1327720
0>
#1327797
1f
#1327855
0h
#1328234
0g
#1328310
1i
#1330000
1!
#1330514
1;
#1340000
0!
#1340679
0;
#1342392
0<
#1343338
0[!
0L!
#1345216
0=
#1350000
1!
#1350514
1;
#1360000
0!
#1360679
0;
#1363202
1[!
1L!
#1365098
1=
#1366822
0G!
0F!
1E!
#1367450
0i
#1367485
0f
#1367522
1>
#1367527
1j
#1367612
1h
#1367670
0j
#1368067
1i
#1370000
1!
#1370514
1;
#1380000
0!
#1380679
0;
#1383067
0[!
0L!
#1384945
0=
#1390000
1!
#1390514
1;
#1400000
0!
#1400679
0;
#1402932
1[!
1L!
#1404828
1=
#1406552
1G!
#1407179
0>
#1407256
1f
#1407711
1g
#1410000
1!
#1410514
1;
#1412392
1<
#1420000
0!
#1420679
0;
#1422797
0[!
0L!
#1424675
0=
#1430000
1!
#1430514
1;
#1440000
0!
#1440679
0;
#1442662
1[!
1L!
#1444558
1=
#1446282
0G!
1F!
#1446856
0h
#1446909
0g
#1446914
1j
#1446945
0f
#1446982
1>
#1447003
1h
#1447061
0j
#1447400
1g
#1450000
1!
#1450514
1;
#1460000
0!
#1460679
0;
#1462527
0[!
0L!
#1464405
0=
#1470000
1!
#1470514
1;
#1480000
0!
#1480679
0;
#1482392
1[!
1L!
0<
#1484288
1=
#1486012
1G!
#1486639
0>
#1486716
1f
#1486774
0h
#1486832
1j
#1487153
0g
#1487211
0i
#1487287
1k
#1490000
1!
#1490514
1;
#1500000
0!
#1500679
0;
#1502256
0[!
0L!
#1504134
0=
#1510000
1!
#1510514
1;
#1520000
0!
#1520679
0;
#1522121
1[!
1L!
#1524017
1=
#1525741
0G!
0F!
0E!
1D!
#1526317
0l
#1526370
0k
#1526375
1n
#1526404
0f
#1526405
0j
#1526441
1>
#1526442
1i
#1526463
1l
#1526521
0n
#1526531
1h
#1526860
1k
#1526968
0i
#1530000
1!
#1530514
1;
#1540000
0!
#1540679
0;
#1541986
0[!
0L!
#1543864
0=
#1550000
1!
#1550514
1;
#1552392
1<
#1560000
0!
#1560679
0;
#1561851
1[!
1L!
#1563747
1=
#1565471
1G!
#1566098
0>
#1566175
1f
#1566630
1g
#1570000
1!
#1570514
1;
#1580000
0!
#1580679
0;
#1581716
0[!
0L!
#1583594
0=
#1590000
1!
#1590514
1;
#1600000
0!
#1600679
0;
#1601581
1[!
1L!
#1603477
1=
#1605201
0G!
1F!
#1605775
0h
#1605828
0g
#1605864
0f
#1605901
1>
#1605922
1h
#1606319
1g
#1610000
1!
#1610514
1;
#1620000
0!
#1620679
0;
#1621446
0[!
0L!
#1622392
0<
#1623324
0=
#1630000
1!
#1630514
1;
#1640000
0!
#1640679
0;
#1641310
1[!
1L!
#1643206
1=
#1644930
1G!
#1645557
0>
#1645634
1f
#1645692
0h
#1646071
0g
#1646147
1i
#1650000
1!
#1650514
1;
#1660000
0!
#1660679
0;
#1661175
0[!
0L!
#1663053
0=
#1670000
1!
#1670514
1;
#1680000
0!
#1680679
0;
#1681040
1[!
1L!
#1682936
1=
#1684660
0G!
0F!
1E!
#1685288
0i
#1685323
0f
#1685360
1>
#1685365
1j
#1685423
0l
#1685450
1h
#1685481
1n
#1685508
0j
#1685566
1l
#1685624
0n
#1685905
1i
#1690000
1!
#1690514
1;
#1692392
1<
#1700000
0!
#1700679
0;
#1700905
0[!
0L!
#1702783
0=
#1710000
1!
#1710514
1;
#1720000
0!
#1720679
0;
#1720770
1[!
1L!
#1722666
1=
#1724390
1G!
#1725017
0>
#1725094
1f
#1725549
1g
#1730000
1!
#1730514
1;
#1740000
0!
#1740635
0[!
0L!
#1740679
0;
#1742513
0=
#1750000
1!
#1750514
1;
#1760000
0!
#1760500
1[!
1L!
#1760679
0;
#1762392
0<
#1762396
1=
#1764120
0G!
1F!
#1764694
0h
#1764747
0g
#1764752
1j
#1764783
0f
#1764810
0l
#1764820
1>
#1764841
1h
#1764868
1n
#1764899
0j
#1764957
1l
#1765015
0n
#1765238
1g
#1770000
1!
#1770514
1;
#1780000
0!
#1780365
0[!
0L!
#1780679
0;
#1782243
0=
#1790000
1!
#1790514
1;
#1800000
0!
#1800229
1[!
1L!
#1800679
0;
#1802125
1=
#1803849
1G!
#1804476
0>
#1804553
1f
#1804611
0h
#1804669
1j
#1804727
0l
#1804785
1n
#1804990
0g
#1805048
0i
#1805106
0k
#1805164
0m
#1805240
1o
#1810000
1!
#1810514
1;
#1820000
0!
#1820094
0[!
0L!
#1820679
0;
#1821972
0=
#1830000
1!
#1830514
1;
#1832392
1<
#1839959
1[!
1L!
#1840000
0!
#1840679
0;
#1841855
1=
#1843579
0G!
0F!
0E!
0D!
0C!
1B!
#1844178
0p
#1844233
0o
#1844242
0f
#1844243
0j
#1844267
0n
#1844279
1>
#1844280
1i
#1844281
0/!
#1844306
1m
#1844325
1p
#1844369
1h
#1844370
1l
#1844646
0@
#1844722
1o
#1844806
0i
#1844807
0m
#1850000
1!
#1850514
1;
#1859824
0[!
0L!
#1860000
0!
#1860679
0;
#1861702
0=
#1870000
1!
#1870514
1;
#1879689
1[!
1L!
#1880000
0!
#1880679
0;
#1881585
1=
#1883309
1G!
#1883922
1/!
#1883936
0>
#1884013
1f
#1884468
1g
#1890000
1!
#1890514
1;
#1899554
0[!
0L!
#1900000
0!
#1900679
0;
#1901432
0=
#1902392
0<
#1910000
1!
#1910514
1;
#1919419
1[!
1L!
#1920000
0!
#1920679
0;
#1921315
1=
#1923039
0G!
1F!
#1923613
0h
#1923666
0g
#1923702
0f
#1923739
1>
#1923760
1h
#1924157
1g
#1930000
1!
#1930514
1;
#1939283
0[!
0L!
#1940000
0!
#1940679
0;
#1941161
0=
#1950000
1!
#1950514
1;
#1959148
1[!
1L!
#1960000
0!
#1960679
0;
#1961044
1=
#1962768
1G!
#1963395
0>
#1963472
1f
#1963530
0h
#1963909
0g
#1963985
1i
#1970000
1!
#1970514
1;
#1972392
1<
#1979013
0[!
0L!
#1980000
0!
#1980679
0;
#1980891
0=
#1990000
1!
#1990514
1;
#1998878
1[!
1L!
#2000000
0!
#2000679
0;
#2000774
1=
#2002498
0G!
0F!
1E!
#2003126
0i
#2003161
0f
#2003198
1>
#2003203
1j
#2003288
1h
#2003346
0j
#2003743
1i
#2010000
1!
#2010514
1;
#2018743
0[!
0L!
#2020000
0!
#2020621
0=
#2020679
0;
#2030000
1!
#2030514
1;
#2038608
1[!
1L!
#2040000
0!
#2040504
1=
#2040679
0;
#2042228
1G!
#2042392
0<
#2042855
0>
#2042932
1f
#2043387
1g
#2050000
1!
#2050514
1;
#2058473
0[!
0L!
#2060000
0!
#2060351
0=
#2060679
0;
#2070000
1!
#2070514
1;
#2078337
1[!
1L!
#2080000
0!
#2080233
1=
#2080679
0;
#2081957
0G!
1F!
#2082531
0h
#2082584
0g
#2082589
1j
#2082620
0f
#2082657
1>
#2082678
1h
#2082736
0j
#2083075
1g
#2090000
1!
#2090514
1;
#2098202
0[!
0L!
#2100000
0!
#2100080
0=
#2100679
0;
#2110000
1!
#2110514
1;
#2112392
1<
#2118067
1[!
1L!
#2119963
1=
#2120000
0!
#2120679
0;
#2121687
1G!
#2122314
0>
#2122391
1f
#2122449
0h
#2122507
1j
#2122828
0g
#2122886
0i
#2122962
1k
#2130000
1!
#2130514
1;
#2137932
0[!
0L!
#2139810
0=
#2140000
0!
#2140679
0;
#2150000
1!
#2150514
1;
#2157797
1[!
1L!
#2159693
1=
#2160000
0!
#2160679
0;
#2161417
0G!
0F!
0E!
1D!
#2161993
0l
#2162046
0k
#2162080
0f
#2162081
0j
#2162117
1>
#2162118
1i
#2162139
1l
#2162207
1h
#2162536
1k
#2162644
0i
#2170000
1!
#2170514
1;
#2177662
0[!
0L!
#2179540
0=
#2180000
0!
#2180679
0;
#2182392
0<
#2190000
1!
#2190514
1;
#2197527
1[!
1L!
#2199423
1=
#2200000
0!
#2200679
0;
#2201147
1G!
#2201774
0>
#2201851
1f
#2202306
1g
#2210000
1!
#2210514
1;
#2217392
0[!
0L!
#2219270
0=
#2220000
0!
#2220679
0;
#2230000
1!
#2230514
1;
#2237256
1[!
1L!
#2239152
1=
#2240000
0!
#2240679
0;
#2240876
0G!
1F!
#2241450
0h
#2241503
0g
#2241539
0f
#2241576
1>
#2241597
1h
#2241994
1g
#2250000
1!
#2250514
1;
#2252392
1<
#2257121
0[!
0L!
#2258999
0=
#2260000
0!
#2260679
0;
#2270000
1!
#2270514
1;
#2276986
1[!
1L!
#2278882
1=
#2280000
0!
#2280606
1G!
#2280679
0;
#2281233
0>
#2281310
1f
#2281368
0h
#2281747
0g
#2281823
1i
#2290000
1!
#2290514
1;
#2296851
0[!
0L!
#2298729
0=
#2300000
0!
#2300679
0;
#2310000
1!
#2310514
1;
#2316716
1[!
1L!
#2318612
1=
#2320000
0!
#2320336
0G!
0F!
1E!
#2320679
0;
#2320964
0i
#2320999
0f
#2321036
1>
#2321041
1j
#2321099
0l
#2321126
1h
#2321184
0j
#2321242
1l
#2321581
1i
#2322392
0<
#2330000
1!
#2330514
1;
#2336581
0[!
0L!
#2338459
0=
#2340000
0!
#2340679
0;
#2350000
1!
#2350514
1;
#2356446
1[!
1L!
#2358342
1=
#2360000
0!
#2360066
1G!
#2360679
0;
#2360693
0>
#2360770
1f
#2361225
1g
#2370000
1!
#2370514
1;
#2376310
0[!
0L!
#2378188
0=
#2380000
0!
#2380679
0;
#2390000
1!
#2390514
1;
#2392392
1<
#2396175
1[!
1L!
#2398071
1=
#2399795
0G!
1F!
#2400000
0!
#2400369
0h
#2400422
0g
#2400427
1j
#2400458
0f
#2400485
0l
#2400495
1>
#2400516
1h
#2400574
0j
#2400632
1l
#2400679
0;
#2400913
1g
#2410000
1!
#2410514
1;
#2416040
0[!
0L!
#2417918
0=
#2420000
0!
#2420679
0;
#2430000
1!
#2430514
1;
#2435905
1[!
1L!
#2437801
1=
#2439525
1G!
#2440000
0!
#2440152
0>
#2440229
1f
#2440287
0h
#2440345
1j
#2440403
0l
#2440666
0g
#2440679
0;
#2440724
0i
#2440782
0k
#2440858
1m
#2450000
1!
#2450514
1;
#2455770
0[!
0L!
#2457648
0=
#2460000
0!
#2460679
0;
#2462392
0<
#2470000
1!
#2470514
1;
#2475635
1[!
1L!
#2477531
1=
#2479255
0G!
0F!
0E!
0D!
1C!
#2479903
0m
#2479918
0f
#2479919
0j
#2479955
1>
#2479956
1i
#2479957
0/!
#2479972
1n
#2480000
0!
#2480030
0p
#2480045
1h
#2480046
1l
#2480104
0n
#2480162
1p
#2480482
0i
#2480501
1m
#2480679
0;
#2490000
1!
#2490514
1;
#2495500
0[!
0L!
#2497378
0=
#2500000
0!
#2500679
0;
#2510000
1!
#2510514
1;
#2515364
1[!
1L!
#2517260
1=
#2518984
1G!
#2519597
1/!
#2519611
0>
#2519688
1f
#2520000
0!
#2520143
1g
#2520679
0;
#2530000
1!
#2530514
1;
#2532392
1<
#2535229
0[!
0L!
#2537107
0=
#2540000
0!
#2540679
0;
#2550000
1!
#2550514
1;
#2555094
1[!
1L!
#2556990
1=
#2558714
0G!
1F!
#2559288
0h
#2559341
0g
#2559377
0f
#2559414
1>
#2559435
1h
#2559832
1g
#2560000
0!
#2560679
0;
#2570000
1!
#2570514
1;
#2574959
0[!
0L!
#2576837
0=
#2580000
0!
#2580679
0;
#2590000
1!
#2590514
1;
#2594824
1[!
1L!
#2596720
1=
#2598444
1G!
#2599071
0>
#2599148
1f
#2599206
0h
#2599585
0g
#2599661
1i
#2600000
0!
#2600679
0;
#2602392
0<
#2610000
1!
#2610514
1;
#2614689
0[!
0L!
